%!PS-Adobe-2.0 EPSF-2.0
%%Title: ds-1.eps
%%Creator: fig2dev Version 3.2 Patchlevel 1a
%%CreationDate: Sat Sep 23 14:46:43 2000
%%For: hilaire@ulysse.edu (Hilaire Fernandes)
%%Orientation: Portrait
%%BoundingBox: 0 0 156 105
%%Pages: 0
%%BeginSetup
%%EndSetup
%%Magnification: 1.0000
%%EndComments
/$F2psDict 200 dict def
$F2psDict begin
$F2psDict /mtrx matrix put
/col-1 {0 setgray} bind def
/col0 {0.000 0.000 0.000 srgb} bind def
/col1 {0.000 0.000 1.000 srgb} bind def
/col2 {0.000 1.000 0.000 srgb} bind def
/col3 {0.000 1.000 1.000 srgb} bind def
/col4 {1.000 0.000 0.000 srgb} bind def
/col5 {1.000 0.000 1.000 srgb} bind def
/col6 {1.000 1.000 0.000 srgb} bind def
/col7 {1.000 1.000 1.000 srgb} bind def
/col8 {0.000 0.000 0.560 srgb} bind def
/col9 {0.000 0.000 0.690 srgb} bind def
/col10 {0.000 0.000 0.820 srgb} bind def
/col11 {0.530 0.810 1.000 srgb} bind def
/col12 {0.000 0.560 0.000 srgb} bind def
/col13 {0.000 0.690 0.000 srgb} bind def
/col14 {0.000 0.820 0.000 srgb} bind def
/col15 {0.000 0.560 0.560 srgb} bind def
/col16 {0.000 0.690 0.690 srgb} bind def
/col17 {0.000 0.820 0.820 srgb} bind def
/col18 {0.560 0.000 0.000 srgb} bind def
/col19 {0.690 0.000 0.000 srgb} bind def
/col20 {0.820 0.000 0.000 srgb} bind def
/col21 {0.560 0.000 0.560 srgb} bind def
/col22 {0.690 0.000 0.690 srgb} bind def
/col23 {0.820 0.000 0.820 srgb} bind def
/col24 {0.500 0.190 0.000 srgb} bind def
/col25 {0.630 0.250 0.000 srgb} bind def
/col26 {0.750 0.380 0.000 srgb} bind def
/col27 {1.000 0.500 0.500 srgb} bind def
/col28 {1.000 0.630 0.630 srgb} bind def
/col29 {1.000 0.750 0.750 srgb} bind def
/col30 {1.000 0.880 0.880 srgb} bind def
/col31 {1.000 0.840 0.000 srgb} bind def
/col32 {0.557 0.557 0.557 srgb} bind def
/col33 {0.255 0.271 0.255 srgb} bind def
/col34 {0.557 0.557 0.557 srgb} bind def
/col35 {0.255 0.271 0.255 srgb} bind def
/col36 {0.557 0.557 0.557 srgb} bind def
/col37 {0.255 0.271 0.255 srgb} bind def
/col38 {0.557 0.557 0.557 srgb} bind def
/col39 {0.255 0.271 0.255 srgb} bind def
/col40 {0.557 0.557 0.557 srgb} bind def
/col41 {0.255 0.271 0.255 srgb} bind def
/col42 {0.557 0.557 0.557 srgb} bind def
/col43 {0.255 0.271 0.255 srgb} bind def
/col44 {0.255 0.271 0.255 srgb} bind def
/col45 {0.557 0.557 0.557 srgb} bind def
/col46 {0.255 0.271 0.255 srgb} bind def
/col47 {0.557 0.557 0.557 srgb} bind def
/col48 {0.255 0.271 0.255 srgb} bind def
/col49 {0.557 0.557 0.557 srgb} bind def
/col50 {0.255 0.271 0.255 srgb} bind def
/col51 {0.557 0.557 0.557 srgb} bind def
/col52 {0.255 0.271 0.255 srgb} bind def
/col53 {0.557 0.557 0.557 srgb} bind def
/col54 {0.255 0.271 0.255 srgb} bind def
/col55 {0.557 0.557 0.557 srgb} bind def
/col56 {0.255 0.271 0.255 srgb} bind def
/col57 {0.557 0.557 0.557 srgb} bind def

end
save
-55.0 132.0 translate
1 -1 scale

/cp {closepath} bind def
/ef {eofill} bind def
/gr {grestore} bind def
/gs {gsave} bind def
/sa {save} bind def
/rs {restore} bind def
/l {lineto} bind def
/m {moveto} bind def
/rm {rmoveto} bind def
/n {newpath} bind def
/s {stroke} bind def
/sh {show} bind def
/slc {setlinecap} bind def
/slj {setlinejoin} bind def
/slw {setlinewidth} bind def
/srgb {setrgbcolor} bind def
/rot {rotate} bind def
/sc {scale} bind def
/sd {setdash} bind def
/ff {findfont} bind def
/sf {setfont} bind def
/scf {scalefont} bind def
/sw {stringwidth} bind def
/tr {translate} bind def
/tnt {dup dup currentrgbcolor
  4 -2 roll dup 1 exch sub 3 -1 roll mul add
  4 -2 roll dup 1 exch sub 3 -1 roll mul add
  4 -2 roll dup 1 exch sub 3 -1 roll mul add srgb}
  bind def
/shd {dup dup currentrgbcolor 4 -2 roll mul 4 -2 roll mul
  4 -2 roll mul srgb} bind def
/$F2psBegin {$F2psDict begin /$F2psEnteredState save def} def
/$F2psEnd {$F2psEnteredState restore end} def
%%EndProlog

$F2psBegin
10 setmiterlimit
n -1000 3082 m -1000 -1000 l 4342 -1000 l 4342 3082 l cp clip n
 0.06299 0.06299 sc
% Polyline
7.500 slw
n 900 450 m 3330 450 l 3330 2070 l 900 2070 l cp gs col16 s gr 
% Polyline
n 900 540 m 3330 540 l gs col16 s gr 
% Polyline
n 990 450 m 990 2070 l gs col16 s gr 
% Polyline
n 1080 450 m 1080 2070 l gs col16 s gr 
% Polyline
n 1170 450 m 1170 2070 l gs col16 s gr 
% Polyline
n 1260 450 m 1260 2070 l gs col16 s gr 
% Polyline
n 1350 450 m 1350 2070 l gs col16 s gr 
% Polyline
n 1440 450 m 1440 2070 l gs col16 s gr 
% Polyline
n 1530 450 m 1530 2070 l gs col16 s gr 
% Polyline
n 1620 450 m 1620 2070 l gs col16 s gr 
% Polyline
n 1710 450 m 1710 2070 l gs col16 s gr 
% Polyline
n 1800 450 m 1800 2070 l gs col16 s gr 
% Polyline
n 1890 450 m 1890 2070 l gs col16 s gr 
% Polyline
n 1980 450 m 1980 2070 l gs col16 s gr 
% Polyline
n 2070 450 m 2070 2070 l gs col16 s gr 
% Polyline
n 2160 450 m 2160 2070 l gs col16 s gr 
% Polyline
n 2250 450 m 2250 2070 l gs col16 s gr 
% Polyline
n 2340 450 m 2340 2070 l gs col16 s gr 
% Polyline
n 2430 450 m 2430 2070 l gs col16 s gr 
% Polyline
n 2520 450 m 2520 2070 l gs col16 s gr 
% Polyline
n 2610 450 m 2610 2070 l gs col16 s gr 
% Polyline
n 2700 450 m 2700 2070 l gs col16 s gr 
% Polyline
n 2790 450 m 2790 2070 l gs col16 s gr 
% Polyline
n 2880 450 m 2880 2070 l gs col16 s gr 
% Polyline
n 2970 450 m 2970 2070 l gs col16 s gr 
% Polyline
n 3060 450 m 3060 2070 l gs col16 s gr 
% Polyline
n 3150 450 m 3150 2070 l gs col16 s gr 
% Polyline
n 3240 450 m 3240 2070 l gs col16 s gr 
% Polyline
n 900 630 m 3330 630 l gs col16 s gr 
% Polyline
n 900 720 m 3330 720 l gs col16 s gr 
% Polyline
n 900 810 m 3330 810 l gs col16 s gr 
% Polyline
n 900 900 m 3330 900 l gs col16 s gr 
% Polyline
n 900 990 m 3330 990 l gs col16 s gr 
% Polyline
n 900 1080 m 3330 1080 l gs col16 s gr 
% Polyline
n 900 1170 m 3330 1170 l gs col16 s gr 
% Polyline
n 900 1260 m 3330 1260 l gs col16 s gr 
% Polyline
n 900 1350 m 3330 1350 l gs col16 s gr 
% Polyline
n 900 1440 m 3330 1440 l gs col16 s gr 
% Polyline
n 900 1530 m 3330 1530 l gs col16 s gr 
% Polyline
n 900 1620 m 3330 1620 l gs col16 s gr 
% Polyline
n 900 1710 m 3330 1710 l gs col16 s gr 
% Polyline
n 900 1800 m 3330 1800 l gs col16 s gr 
% Polyline
n 900 1980 m 3330 1980 l gs col16 s gr 
% Polyline
n 900 1890 m 3330 1890 l gs col16 s gr 
% Polyline
n 1440 1980 m 1350 1800 l 1710 1800 l 1800 1980 l 1440 1980 l  cp gs col0 s gr 
% Polyline
1 slj
1 slc
n 1350 1800 m 1710 1620 l 2070 1620 l 1710 1800 l gs col0 s gr 
% Polyline
n 2070 1620 m 2160 1800 l 1800 1980 l gs col0 s gr 
% Polyline
n 1170 630 m 990 900 l 1350 900 l 1170 630 l 1530 540 l 1710 810 l
 1350 900 l gs col0 s gr 
% Polyline
0 slj
0 slc
n 2700 990 m 2520 900 l gs col0 s gr 
% Polyline
1 slj
1 slc
n 2430 1260 m 2880 1260 l 2700 990 l 2430 1260 l  cp gs col0 s gr 
$F2psEnd
rs
